{
  "home": {
    "title": "Planen.social",
    "description": "Promote events and make plans."
  },
  "auth": {
    "login": "Login",
    "register": "Register"
  },
  "errors": {
    "404": {
      "title": "Not Found",
      "description": "Page was not found",
      "heading": "Hmm, doesn't seem like we know this page :("
    }
  }
}
